﻿  pch.cpp
d:\bitbucket\resizer\cpp\packages\microsoft.googletest.v140.windesktop.msvcstl.dyn.rt-dyn.1.8.0\build\native\include\gtest\internal\gtest-port.h(996): warning C4996: 'std::tr1': warning STL4002: The non-Standard std::tr1 namespace and TR1-only machinery are deprecated and will be REMOVED. You can define _SILENCE_TR1_NAMESPACE_DEPRECATION_WARNING to acknowledge that you have received this warning.
  e:\programfiles\visualstudio\2017\enterprise\vc\tools\msvc\14.15.26726\include\tuple(1333): note: see declaration of 'std::tr1'
d:\bitbucket\resizer\cpp\packages\microsoft.googletest.v140.windesktop.msvcstl.dyn.rt-dyn.1.8.0\build\native\include\gtest\internal\gtest-port.h(997): warning C4996: 'std::tr1': warning STL4002: The non-Standard std::tr1 namespace and TR1-only machinery are deprecated and will be REMOVED. You can define _SILENCE_TR1_NAMESPACE_DEPRECATION_WARNING to acknowledge that you have received this warning.
  e:\programfiles\visualstudio\2017\enterprise\vc\tools\msvc\14.15.26726\include\tuple(1333): note: see declaration of 'std::tr1'
d:\bitbucket\resizer\cpp\packages\microsoft.googletest.v140.windesktop.msvcstl.dyn.rt-dyn.1.8.0\build\native\include\gtest\internal\gtest-port.h(998): warning C4996: 'std::tr1': warning STL4002: The non-Standard std::tr1 namespace and TR1-only machinery are deprecated and will be REMOVED. You can define _SILENCE_TR1_NAMESPACE_DEPRECATION_WARNING to acknowledge that you have received this warning.
  e:\programfiles\visualstudio\2017\enterprise\vc\tools\msvc\14.15.26726\include\tuple(1333): note: see declaration of 'std::tr1'
d:\bitbucket\resizer\cpp\packages\microsoft.googletest.v140.windesktop.msvcstl.dyn.rt-dyn.1.8.0\build\native\include\gtest\internal\gtest-port.h(999): warning C4996: 'std::tr1': warning STL4002: The non-Standard std::tr1 namespace and TR1-only machinery are deprecated and will be REMOVED. You can define _SILENCE_TR1_NAMESPACE_DEPRECATION_WARNING to acknowledge that you have received this warning.
  e:\programfiles\visualstudio\2017\enterprise\vc\tools\msvc\14.15.26726\include\tuple(1333): note: see declaration of 'std::tr1'
d:\bitbucket\resizer\cpp\packages\microsoft.googletest.v140.windesktop.msvcstl.dyn.rt-dyn.1.8.0\build\native\include\gtest\internal\gtest-port.h(1000): warning C4996: 'std::tr1': warning STL4002: The non-Standard std::tr1 namespace and TR1-only machinery are deprecated and will be REMOVED. You can define _SILENCE_TR1_NAMESPACE_DEPRECATION_WARNING to acknowledge that you have received this warning.
  e:\programfiles\visualstudio\2017\enterprise\vc\tools\msvc\14.15.26726\include\tuple(1333): note: see declaration of 'std::tr1'
d:\bitbucket\resizer\cpp\packages\microsoft.googletest.v140.windesktop.msvcstl.dyn.rt-dyn.1.8.0\build\native\include\gtest\gtest-printers.h(600): warning C4996: 'std::tr1': warning STL4002: The non-Standard std::tr1 namespace and TR1-only machinery are deprecated and will be REMOVED. You can define _SILENCE_TR1_NAMESPACE_DEPRECATION_WARNING to acknowledge that you have received this warning.
  e:\programfiles\visualstudio\2017\enterprise\vc\tools\msvc\14.15.26726\include\tuple(1333): note: see declaration of 'std::tr1'
d:\bitbucket\resizer\cpp\packages\microsoft.googletest.v140.windesktop.msvcstl.dyn.rt-dyn.1.8.0\build\native\include\gtest\gtest-printers.h(605): warning C4996: 'std::tr1': warning STL4002: The non-Standard std::tr1 namespace and TR1-only machinery are deprecated and will be REMOVED. You can define _SILENCE_TR1_NAMESPACE_DEPRECATION_WARNING to acknowledge that you have received this warning.
  e:\programfiles\visualstudio\2017\enterprise\vc\tools\msvc\14.15.26726\include\tuple(1333): note: see declaration of 'std::tr1'
d:\bitbucket\resizer\cpp\packages\microsoft.googletest.v140.windesktop.msvcstl.dyn.rt-dyn.1.8.0\build\native\include\gtest\gtest-printers.h(610): warning C4996: 'std::tr1': warning STL4002: The non-Standard std::tr1 namespace and TR1-only machinery are deprecated and will be REMOVED. You can define _SILENCE_TR1_NAMESPACE_DEPRECATION_WARNING to acknowledge that you have received this warning.
  e:\programfiles\visualstudio\2017\enterprise\vc\tools\msvc\14.15.26726\include\tuple(1333): note: see declaration of 'std::tr1'
d:\bitbucket\resizer\cpp\packages\microsoft.googletest.v140.windesktop.msvcstl.dyn.rt-dyn.1.8.0\build\native\include\gtest\gtest-printers.h(615): warning C4996: 'std::tr1': warning STL4002: The non-Standard std::tr1 namespace and TR1-only machinery are deprecated and will be REMOVED. You can define _SILENCE_TR1_NAMESPACE_DEPRECATION_WARNING to acknowledge that you have received this warning.
  e:\programfiles\visualstudio\2017\enterprise\vc\tools\msvc\14.15.26726\include\tuple(1333): note: see declaration of 'std::tr1'
d:\bitbucket\resizer\cpp\packages\microsoft.googletest.v140.windesktop.msvcstl.dyn.rt-dyn.1.8.0\build\native\include\gtest\gtest-printers.h(620): warning C4996: 'std::tr1': warning STL4002: The non-Standard std::tr1 namespace and TR1-only machinery are deprecated and will be REMOVED. You can define _SILENCE_TR1_NAMESPACE_DEPRECATION_WARNING to acknowledge that you have received this warning.
  e:\programfiles\visualstudio\2017\enterprise\vc\tools\msvc\14.15.26726\include\tuple(1333): note: see declaration of 'std::tr1'
d:\bitbucket\resizer\cpp\packages\microsoft.googletest.v140.windesktop.msvcstl.dyn.rt-dyn.1.8.0\build\native\include\gtest\gtest-printers.h(625): warning C4996: 'std::tr1': warning STL4002: The non-Standard std::tr1 namespace and TR1-only machinery are deprecated and will be REMOVED. You can define _SILENCE_TR1_NAMESPACE_DEPRECATION_WARNING to acknowledge that you have received this warning.
  e:\programfiles\visualstudio\2017\enterprise\vc\tools\msvc\14.15.26726\include\tuple(1333): note: see declaration of 'std::tr1'
d:\bitbucket\resizer\cpp\packages\microsoft.googletest.v140.windesktop.msvcstl.dyn.rt-dyn.1.8.0\build\native\include\gtest\gtest-printers.h(632): warning C4996: 'std::tr1': warning STL4002: The non-Standard std::tr1 namespace and TR1-only machinery are deprecated and will be REMOVED. You can define _SILENCE_TR1_NAMESPACE_DEPRECATION_WARNING to acknowledge that you have received this warning.
  e:\programfiles\visualstudio\2017\enterprise\vc\tools\msvc\14.15.26726\include\tuple(1333): note: see declaration of 'std::tr1'
d:\bitbucket\resizer\cpp\packages\microsoft.googletest.v140.windesktop.msvcstl.dyn.rt-dyn.1.8.0\build\native\include\gtest\gtest-printers.h(639): warning C4996: 'std::tr1': warning STL4002: The non-Standard std::tr1 namespace and TR1-only machinery are deprecated and will be REMOVED. You can define _SILENCE_TR1_NAMESPACE_DEPRECATION_WARNING to acknowledge that you have received this warning.
  e:\programfiles\visualstudio\2017\enterprise\vc\tools\msvc\14.15.26726\include\tuple(1333): note: see declaration of 'std::tr1'
d:\bitbucket\resizer\cpp\packages\microsoft.googletest.v140.windesktop.msvcstl.dyn.rt-dyn.1.8.0\build\native\include\gtest\gtest-printers.h(646): warning C4996: 'std::tr1': warning STL4002: The non-Standard std::tr1 namespace and TR1-only machinery are deprecated and will be REMOVED. You can define _SILENCE_TR1_NAMESPACE_DEPRECATION_WARNING to acknowledge that you have received this warning.
  e:\programfiles\visualstudio\2017\enterprise\vc\tools\msvc\14.15.26726\include\tuple(1333): note: see declaration of 'std::tr1'
d:\bitbucket\resizer\cpp\packages\microsoft.googletest.v140.windesktop.msvcstl.dyn.rt-dyn.1.8.0\build\native\include\gtest\gtest-printers.h(653): warning C4996: 'std::tr1': warning STL4002: The non-Standard std::tr1 namespace and TR1-only machinery are deprecated and will be REMOVED. You can define _SILENCE_TR1_NAMESPACE_DEPRECATION_WARNING to acknowledge that you have received this warning.
  e:\programfiles\visualstudio\2017\enterprise\vc\tools\msvc\14.15.26726\include\tuple(1333): note: see declaration of 'std::tr1'
d:\bitbucket\resizer\cpp\packages\microsoft.googletest.v140.windesktop.msvcstl.dyn.rt-dyn.1.8.0\build\native\include\gtest\gtest-printers.h(661): warning C4996: 'std::tr1': warning STL4002: The non-Standard std::tr1 namespace and TR1-only machinery are deprecated and will be REMOVED. You can define _SILENCE_TR1_NAMESPACE_DEPRECATION_WARNING to acknowledge that you have received this warning.
  e:\programfiles\visualstudio\2017\enterprise\vc\tools\msvc\14.15.26726\include\tuple(1333): note: see declaration of 'std::tr1'
d:\bitbucket\resizer\cpp\packages\microsoft.googletest.v140.windesktop.msvcstl.dyn.rt-dyn.1.8.0\build\native\include\gtest\gtest-printers.h(878): warning C4996: 'std::tr1': warning STL4002: The non-Standard std::tr1 namespace and TR1-only machinery are deprecated and will be REMOVED. You can define _SILENCE_TR1_NAMESPACE_DEPRECATION_WARNING to acknowledge that you have received this warning.
  e:\programfiles\visualstudio\2017\enterprise\vc\tools\msvc\14.15.26726\include\tuple(1333): note: see declaration of 'std::tr1'
  d:\bitbucket\resizer\cpp\packages\microsoft.googletest.v140.windesktop.msvcstl.dyn.rt-dyn.1.8.0\build\native\include\gtest\gtest-printers.h(878): note: see reference to class template instantiation 'testing::internal::TuplePolicy<TupleT>::tuple_element<I>' being compiled
  d:\bitbucket\resizer\cpp\packages\microsoft.googletest.v140.windesktop.msvcstl.dyn.rt-dyn.1.8.0\build\native\include\gtest\gtest-printers.h(886): note: see reference to class template instantiation 'testing::internal::TuplePolicy<TupleT>' being compiled
d:\bitbucket\resizer\cpp\packages\microsoft.googletest.v140.windesktop.msvcstl.dyn.rt-dyn.1.8.0\build\native\include\gtest\gtest-printers.h(882): warning C4996: 'std::tr1': warning STL4002: The non-Standard std::tr1 namespace and TR1-only machinery are deprecated and will be REMOVED. You can define _SILENCE_TR1_NAMESPACE_DEPRECATION_WARNING to acknowledge that you have received this warning.
  e:\programfiles\visualstudio\2017\enterprise\vc\tools\msvc\14.15.26726\include\tuple(1333): note: see declaration of 'std::tr1'
d:\bitbucket\resizer\cpp\packages\microsoft.googletest.v140.windesktop.msvcstl.dyn.rt-dyn.1.8.0\build\native\include\gtest\gtest-printers.h(875): warning C4996: 'std::tr1': warning STL4002: The non-Standard std::tr1 namespace and TR1-only machinery are deprecated and will be REMOVED. You can define _SILENCE_TR1_NAMESPACE_DEPRECATION_WARNING to acknowledge that you have received this warning.
  e:\programfiles\visualstudio\2017\enterprise\vc\tools\msvc\14.15.26726\include\tuple(1333): note: see declaration of 'std::tr1'
  d:\bitbucket\resizer\cpp\packages\microsoft.googletest.v140.windesktop.msvcstl.dyn.rt-dyn.1.8.0\build\native\include\gtest\gtest-printers.h(961): note: see reference to class template instantiation 'testing::internal::TuplePolicy<Tuple>' being compiled
          with
          [
              Tuple=std::tuple<>
          ]
  d:\bitbucket\resizer\cpp\packages\microsoft.googletest.v140.windesktop.msvcstl.dyn.rt-dyn.1.8.0\build\native\include\gtest\gtest-printers.h(601): note: see reference to function template instantiation 'void testing::internal::PrintTupleTo<std::tuple<>>(const T &,std::ostream *)' being compiled
          with
          [
              T=std::tuple<>
          ]
  test.cpp
d:\bitbucket\resizer\cpp\resizer\image.h(4): fatal error C1083: Cannot open include file: 'opencv2/opencv.hpp': No such file or directory
