^D:\BITBUCKET\RESIZER\CPP\GOOGLETESTS\PCH.CPP
D:\BITBUCKET\RESIZER\CPP\GOOGLETESTS\X64\DEBUG\GOOGLETESTS.PCH
D:\BITBUCKET\RESIZER\CPP\GOOGLETESTS\X64\DEBUG\VC141.PDB
D:\BITBUCKET\RESIZER\CPP\GOOGLETESTS\X64\DEBUG\VC141.IDB
D:\BITBUCKET\RESIZER\CPP\GOOGLETESTS\X64\DEBUG\PCH.OBJ
^D:\BITBUCKET\RESIZER\CPP\GOOGLETESTS\TEST.CPP
D:\BITBUCKET\RESIZER\CPP\GOOGLETESTS\X64\DEBUG\VC141.PDB
D:\BITBUCKET\RESIZER\CPP\GOOGLETESTS\X64\DEBUG\VC141.IDB
