^D:\BITBUCKET\RESIZER\CPP\GOOGLETESTS\PCH.CPP
/c /I"D:\DEVTOOLS\JAVA\JDK-10.0.2\INCLUDE\WIN32" /I"D:\DEVTOOLS\JAVA\JDK-10.0.2\INCLUDE" /ID:\DEVTOOLS\OPENCV\BUILD\INCLUDE /ID:\BITBUCKET\RESIZER\CPP\GOOGLETESTS\INCLUDE /I"D:\BITBUCKET\RESIZER\CPP\PACKAGES\MICROSOFT.GOOGLETEST.V140.WINDESKTOP.MSVCSTL.DYN.RT-DYN.1.8.0\BUILD\NATIVE\INCLUDE" /Zi /nologo /W3 /WX- /diagnostics:classic /O2 /D X64 /D NDEBUG /D _CONSOLE /D _UNICODE /D UNICODE /Gm- /EHsc /MD /GS /fp:precise /Zc:wchar_t /Zc:forScope /Zc:inline /Yc"pch.h" /Fp"X64\RELEASE\GOOGLETESTS.PCH" /Fo"X64\RELEASE\\" /Fd"X64\RELEASE\VC141.PDB" /Gd /TP /FC D:\BITBUCKET\RESIZER\CPP\GOOGLETESTS\PCH.CPP
^D:\BITBUCKET\RESIZER\CPP\GOOGLETESTS\TEST.CPP
/c /I"D:\DEVTOOLS\JAVA\JDK-10.0.2\INCLUDE\WIN32" /I"D:\DEVTOOLS\JAVA\JDK-10.0.2\INCLUDE" /ID:\DEVTOOLS\OPENCV\BUILD\INCLUDE /ID:\BITBUCKET\RESIZER\CPP\GOOGLETESTS\INCLUDE /I"D:\BITBUCKET\RESIZER\CPP\PACKAGES\MICROSOFT.GOOGLETEST.V140.WINDESKTOP.MSVCSTL.DYN.RT-DYN.1.8.0\BUILD\NATIVE\INCLUDE" /Zi /nologo /W3 /WX- /diagnostics:classic /O2 /D X64 /D NDEBUG /D _CONSOLE /D _UNICODE /D UNICODE /Gm- /EHsc /MD /GS /fp:precise /Zc:wchar_t /Zc:forScope /Zc:inline /Yu"pch.h" /Fp"X64\RELEASE\GOOGLETESTS.PCH" /Fo"X64\RELEASE\\" /Fd"X64\RELEASE\VC141.PDB" /Gd /TP /FC D:\BITBUCKET\RESIZER\CPP\GOOGLETESTS\TEST.CPP
